{
  "project_info": {
    "project_number": "31217065163",
    "project_id": "incivismeproyecto",
    "storage_bucket": "incivismeproyecto.appspot.com"
  },
  "client": [
    {
      "client_info": {
        "mobilesdk_app_id": "1:31217065163:android:7ead1f2da2471f2dca4f4e",
        "android_client_info": {
          "package_name": "com.example.incivisme_proyecte"
        }
      },
      "oauth_client": [
        {
          "client_id": "31217065163-lsb9u4fa5ri5fipqren49bpieldnibk6.apps.googleusercontent.com",
          "client_type": 3
        }
      ],
      "api_key": [
        {
          "current_key": "AIzaSyDepmmLSfRa0HbP9UL-jnZFk3ojIOaiVw8"
        }
      ],
      "services": {
        "appinvite_service": {
          "other_platform_oauth_client": [
            {
              "client_id": "31217065163-lsb9u4fa5ri5fipqren49bpieldnibk6.apps.googleusercontent.com",
              "client_type": 3
            }
          ]
        }
      }
    }
  ],
  "configuration_version": "1"
}